Map Unit,Map Unit Name,Area (Acres),Area (%),Hydric status,Dwellings without basements,Dwellings with basements,Small commercial buildings,Reason
154A,"Flanagan silt loam, 0 to 2 percent slopes",158.38,47.30%,No,Somewhat limited,Very limited,Somewhat limited,"Depth to saturated zone, Shrink-swell"
171B,"Catlin silt loam, 2 to 5 percent slopes",89.26,26.66%,No,Somewhat limited,Somewhat limited,Somewhat limited,"Depth to saturated zone, Shrink-swell"
152A,"Drummer silty clay loam, 0 to 2 percent slopes",74.9,22.37%,Yes,Very limited,Very limited,Very limited,"Ponding, Depth to saturated zone, Shrink-swell"
56B,"Dana silt loam, 2 to 5 percent slopes",5.99,1.79%,No,Somewhat limited,Very limited,Somewhat limited,"Depth to saturated zone, Shrink-swell"
622C2,"Wyanet silt loam, 5 to 10 percent slopes, eroded",4.63,1.38%,No,Somewhat limited,Not limited,Somewhat limited,"Shrink-swell, Slope"
802B,"Orthents, loamy, undulating",1.09,0.32%,No,Somewhat limited,Somewhat limited,Somewhat limited,"Depth to saturated zone, Shrink-swell, Slope"
622D3,"Wyanet clay loam, 10 to 18 percent slopes, severely eroded",0.61,0.18%,No,Somewhat limited,Somewhat limited,Very limited,Slope
