﻿Time,  7:00 AM,  8:00 AM,  9:00 AM,  10:00 AM,  11:00 AM,  12:00 AM, 1:00 PM, 2:00 PM, 3:00 PM, 4:00 PM, 5:00 PM, 6:00 PM
Eastbound,206,255,217,234,308,359,287,339,392,475,507,373
Westbound,424,481,424,481,424,481,424,481,424,481,424,481
Total,630,736,641,715,732,840,711,820,816,956,931,854
