﻿Time,  7:00 AM,  8:00 AM,  9:00 AM,  10:00 AM,  11:00 AM,  12:00 AM, 1:00 PM, 2:00 PM, 3:00 PM, 4:00 PM, 5:00 PM, 6:00 PM
Eastbound,254,295,231,256,323,386,339,379,392,499,564,402
Westbound,498,575,375,313,315,346,347,343,396,415,410,329
Total,752,870,606,569,638,732,686,722,788,914,974,731
