﻿,Black or African American,American Indian and Alaska Native,Asian,Native Hawaiian and Other Pacific Islander,Some other race,Two or more races,White alone
Florida Avenue Area of Influence,10.00%,0.10%,19.00%,0.10%,1.30%,4.50%,65.00%
City of Urbana,16.40%,0.40%,18.90%,0.20%,1.30%,3.40%,59.40%
Champaign County,13.50%,0.20%,10.80%,0.10%,1.00%,2.70%,71.80%
