﻿Commuting Time,Florida Avenue Area of Influence,City of Urbana,Champaign County
Less than 10 Minutes,20.2%,21.2%,15.9%
10 to 19 Minutes,59.5%,56.6%,47.8%
20 to 29 Minutes,10.3%,13.8%,23.2%
30 to 39 Minutes,4.7%,3.2%,7.5%
40 or More Minutes,5.3%,5.2%,5.5%
Total,100.0%,100.0%,99.9%
